{"items":[{"tenant_id":"tid-m8ijkrnk","sku":"qsid-1767098488110","name":"Calvin Klein Cotton Stretch Shirt, Size L","stock":21,"metadata":null,"created_at":"2025-12-30T12:45:08.693Z","updated_at":"2026-01-28T14:46:54.195Z","marketing_description":null,"image_gallery":[],"custom_cta":null,"social_links":null,"custom_branding":null,"custom_sections":[],"landing_page_theme":"default","audit_log_id":null,"availability":"in_stock","brand":"Calvin Klein","category_path":["mens-shirts"],"condition":"brand_new","currency":"USD","description":"A sleek, comfortable stretch shirt perfect for any occasion.","eligibility_reason":null,"gtin":null,"item_status":"active","location_id":null,"merchant_name":null,"mpn":null,"price":69.99,"quantity":null,"sync_status":"pending","synced_at":null,"title":"Calvin Klein Cotton Stretch Shirt, Size L","visibility":"public","manufacturer":null,"source":"MANUAL","enrichment_status":"COMPLETE","enriched_at":null,"enriched_by":null,"enriched_from_barcode":null,"missing_images":false,"missing_description":false,"missing_specs":false,"missing_brand":false,"sale_price_cents":null,"payment_gateway_type":null,"payment_gateway_id":null,"product_type":"physical","digital_delivery_method":null,"digital_assets":null,"access_duration_days":null,"download_limit":null,"license_type":null,"has_variants":true,"is_featured":true,"featured_at":"2026-01-22T14:14:09.735Z","featured_until":"2026-02-21T14:14:09.161Z","featured_priority":50,"featured_type":"sale","tenantCategoryId":"tid-m8ijkrnk_mens-shirts","tenantCategory":{"id":"tid-m8ijkrnk_mens-shirts","name":"Men's Shirts","slug":"mens-shirts","googleCategoryId":"3794"},"imageUrl":"https://nbwsiobosqawrugnqddo.supabase.co/storage/v1/object/public/photos/t-ucgs9idl/products/iid-ky96bhtl/original-1765615394842.jpg","categoryPath":["mens-shirts"],"featuredTypes":["store_selection"],"featuredProducts":[{"id":"7e02d4ba-67b0-462f-83e4-9726385c04aa","inventory_item_id":"sid-qiazuxmt","tenant_id":"tid-m8ijkrnk","featured_type":"store_selection","featured_priority":50,"featured_at":"2026-01-22T14:14:09.735Z","featured_expires_at":"2026-02-21T14:14:09.161Z","auto_unfeature":true,"is_active":true,"days_until_expiration":24,"is_expired":false,"is_expiring_soon":false}],"featuredType":"store_selection"},{"tenant_id":"tid-m8ijkrnk","sku":"qsid-1767098488111","name":"Levi#x27;s 511 Slim Fit Jeans - Men#x27;s 32x32","stock":9,"metadata":null,"created_at":"2025-12-30T12:45:09.333Z","updated_at":"2026-01-28T14:21:52.002Z","marketing_description":null,"image_gallery":[],"custom_cta":null,"social_links":null,"custom_branding":null,"custom_sections":[],"landing_page_theme":"default","audit_log_id":null,"availability":"in_stock","brand":"Levi's","category_path":["mens-pants"],"condition":"brand_new","currency":"USD","description":"A modern slim with room to move, the 511 Slim Fit Jeans are a classic since right now.","eligibility_reason":null,"gtin":null,"item_status":"active","location_id":null,"merchant_name":null,"mpn":null,"price":69.85,"quantity":null,"sync_status":"pending","synced_at":null,"title":"Levi#x27;s 511 Slim Fit Jeans - Men#x27;s 32x32","visibility":"public","manufacturer":null,"source":"MANUAL","enrichment_status":"COMPLETE","enriched_at":null,"enriched_by":null,"enriched_from_barcode":null,"missing_images":false,"missing_description":false,"missing_specs":false,"missing_brand":false,"sale_price_cents":null,"payment_gateway_type":null,"payment_gateway_id":null,"product_type":"physical","digital_delivery_method":null,"digital_assets":null,"access_duration_days":null,"download_limit":null,"license_type":null,"has_variants":true,"is_featured":true,"featured_at":"2026-01-22T14:16:57.003Z","featured_until":"2026-02-21T14:16:56.482Z","featured_priority":50,"featured_type":"seasonal","tenantCategoryId":"tid-m8ijkrnk_mens-pants","tenantCategory":{"id":"tid-m8ijkrnk_mens-pants","name":"Men's Pants","slug":"mens-pants","googleCategoryId":"3951"},"imageUrl":"https://nbwsiobosqawrugnqddo.supabase.co/storage/v1/object/public/photos/t-ucgs9idl/products/iid-4eosklt0/original-1765615419382.jpg","categoryPath":["mens-pants"],"featuredTypes":["new_arrival","store_selection","sale","seasonal"],"featuredProducts":[{"id":"8a487bf9-32fc-4de4-9988-35478fbf826a","inventory_item_id":"sid-jw2g3ftw","tenant_id":"tid-m8ijkrnk","featured_type":"new_arrival","featured_priority":50,"featured_at":"2026-01-22T14:16:57.003Z","featured_expires_at":"2026-02-21T14:16:56.482Z","auto_unfeature":true,"is_active":true,"days_until_expiration":24,"is_expired":false,"is_expiring_soon":false},{"id":"6b6345f9-acdf-455d-81ab-b1f7abb65fc6","inventory_item_id":"sid-jw2g3ftw","tenant_id":"tid-m8ijkrnk","featured_type":"store_selection","featured_priority":50,"featured_at":"2026-01-22T14:14:05.340Z","featured_expires_at":"2026-02-21T14:14:04.463Z","auto_unfeature":true,"is_active":true,"days_until_expiration":24,"is_expired":false,"is_expiring_soon":false},{"id":"31d76fae-6d8a-4d1f-a9c6-6afb796c7edf","inventory_item_id":"sid-jw2g3ftw","tenant_id":"tid-m8ijkrnk","featured_type":"sale","featured_priority":50,"featured_at":"2026-01-21T00:07:20.343Z","featured_expires_at":"2026-02-20T00:07:19.942Z","auto_unfeature":true,"is_active":true,"days_until_expiration":23,"is_expired":false,"is_expiring_soon":false},{"id":"7b5bae65-31d9-4cb7-a3ad-79844c67d564","inventory_item_id":"sid-jw2g3ftw","tenant_id":"tid-m8ijkrnk","featured_type":"seasonal","featured_priority":50,"featured_at":"2026-01-20T05:29:47.696Z","featured_expires_at":null,"auto_unfeature":true,"is_active":true,"days_until_expiration":-1,"is_expired":false,"is_expiring_soon":null}],"featuredType":"new_arrival"},{"tenant_id":"tid-m8ijkrnk","sku":"qsid-1766440209121","name":"Crayola Washable Kids Paint, 6 Count","stock":56,"metadata":{"features":["Washable from skin, clothes, and walls","Non-toxic, safe for children","Vibrant colors that spark creativity"],"specifications":{"size":"2 oz bottles","colors":["Red","Yellow","Blue","Green","Orange","Violet"],"quantity":6,"washable":true,"age_recommendation":"3 years and up"},"enhancedDescription":"Introduce your children to the world of art with Crayola Washable Kids Paint. This 6-count paint set offers a variety of vibrant colors that will fuel your child's imagination and creativity. These paints are specially formulated to be washable from skin, clothing, and even painted walls, making cleanup a breeze. Perfect for crafting, school projects, and at-home painting activities, these non-toxic paints are safe for children and provide hours of fun and learning through play. Let your kids explore colors, mixing, and painting techniques with a trusted brand in children's art supplies."},"created_at":"2025-12-22T21:51:54.824Z","updated_at":"2026-01-25T16:21:53.849Z","marketing_description":null,"image_gallery":[],"custom_cta":null,"social_links":null,"custom_branding":null,"custom_sections":[],"landing_page_theme":"default","audit_log_id":null,"availability":"in_stock","brand":"Crayola","category_path":["kids-crafts"],"condition":"brand_new","currency":"USD","description":"A set of 6 washable kids' paints in vibrant colors.","eligibility_reason":null,"gtin":null,"item_status":"active","location_id":null,"merchant_name":null,"mpn":null,"price":5.49,"quantity":null,"sync_status":"pending","synced_at":null,"title":"Crayola Washable Kids Paint, 6 Count","visibility":"public","manufacturer":null,"source":"MANUAL","enrichment_status":"COMPLETE","enriched_at":null,"enriched_by":null,"enriched_from_barcode":null,"missing_images":false,"missing_description":false,"missing_specs":false,"missing_brand":false,"sale_price_cents":412,"payment_gateway_type":null,"payment_gateway_id":null,"product_type":"physical","digital_delivery_method":null,"digital_assets":null,"access_duration_days":null,"download_limit":null,"license_type":null,"has_variants":false,"is_featured":true,"featured_at":"2026-01-22T14:14:14.328Z","featured_until":"2026-02-21T14:14:13.780Z","featured_priority":50,"featured_type":"store_selection","tenantCategoryId":"tid-m8ijkrnk_kids-crafts","tenantCategory":{"id":"tid-m8ijkrnk_kids-crafts","name":"Kids Crafts","slug":"kids-crafts","googleCategoryId":"8168"},"imageUrl":"https://nbwsiobosqawrugnqddo.supabase.co/storage/v1/object/public/photos/tid-m8ijkrnk/products/sid-071div8t/original-1766440494245.jpg","categoryPath":["kids-crafts"],"featuredTypes":["store_selection"],"featuredProducts":[{"id":"5b3f8e93-76d3-416b-a0fb-b35ab96cf8bf","inventory_item_id":"sid-071div8t","tenant_id":"tid-m8ijkrnk","featured_type":"store_selection","featured_priority":50,"featured_at":"2026-01-22T14:14:14.328Z","featured_expires_at":"2026-02-21T14:14:13.780Z","auto_unfeature":true,"is_active":true,"days_until_expiration":24,"is_expired":false,"is_expiring_soon":false}],"featuredType":"store_selection"},{"tenant_id":"tid-m8ijkrnk","sku":"qsid-1767073877366","name":"Stainless Steel Hex Nut Assortment, 150-Piece","stock":58,"metadata":null,"created_at":"2025-12-30T05:51:23.916Z","updated_at":"2026-01-24T14:50:25.295Z","marketing_description":null,"image_gallery":[],"custom_cta":null,"social_links":null,"custom_branding":null,"custom_sections":[],"landing_page_theme":"default","audit_log_id":null,"availability":"in_stock","brand":"Hillman","category_path":["fasteners-hardware"],"condition":"brand_new","currency":"USD","description":"A comprehensive set of high-quality stainless steel hex nuts for various fastening applications.","eligibility_reason":null,"gtin":null,"item_status":"active","location_id":null,"merchant_name":null,"mpn":null,"price":24.99,"quantity":null,"sync_status":"pending","synced_at":null,"title":"Stainless Steel Hex Nut Assortment, 150-Piece","visibility":"public","manufacturer":null,"source":"MANUAL","enrichment_status":"COMPLETE","enriched_at":null,"enriched_by":null,"enriched_from_barcode":null,"missing_images":false,"missing_description":false,"missing_specs":false,"missing_brand":false,"sale_price_cents":null,"payment_gateway_type":null,"payment_gateway_id":null,"product_type":"physical","digital_delivery_method":null,"digital_assets":null,"access_duration_days":null,"download_limit":null,"license_type":null,"has_variants":false,"is_featured":false,"featured_at":null,"featured_until":null,"featured_priority":null,"featured_type":"store_selection","tenantCategoryId":"tid-m8ijkrnk_fasteners-hardware","tenantCategory":{"id":"tid-m8ijkrnk_fasteners-hardware","name":"Fasteners & Hardware","slug":"fasteners-hardware","googleCategoryId":"6145"},"imageUrl":"https://nbwsiobosqawrugnqddo.supabase.co/storage/v1/object/public/photos/chain_location_1766071991129_0/products/sid-4i3xryel/original-1766112556911.jpg","categoryPath":["fasteners-hardware"],"featuredTypes":[],"featuredProducts":[],"featuredType":null},{"tenant_id":"tid-m8ijkrnk","sku":"qsid-1766440209119","name":"Cotton Calico Fabric Bolt - 5 Yards","stock":6,"metadata":{"features":["5 yards of high-quality, unbleached cotton fabric","Perfect for quilting, apparel, and home décor projects","Natural color ideal for dying, printing, or painting","Medium weight and easy to work with","Versatile material for both beginners and experienced crafters"],"specifications":{"color":"Natural Unbleached","width":"45 inches","weight":"Medium","material":"Cotton Calico","quantity":"5 yards"},"enhancedDescription":"Embrace your creative projects with FabricLand's Cotton Calico Fabric Bolt. This 5-yard bolt of high-quality, unbleached cotton fabric is an essential addition to any crafter's collection. Perfect for quilting, apparel, home décor, and more, the fabric's versatility is unmatched. Its medium weight and easy-to-work-with nature make it ideal for both beginners and seasoned crafters. The natural, unbleached color provides a blank canvas for your dying, printing, or painting projects, allowing your creativity to shine. Stock up on this crafting staple and bring your ideas to life with FabricLand."},"created_at":"2025-12-22T21:51:54.141Z","updated_at":"2026-01-24T13:52:31.085Z","marketing_description":null,"image_gallery":[],"custom_cta":null,"social_links":null,"custom_branding":null,"custom_sections":[],"landing_page_theme":"default","audit_log_id":null,"availability":"in_stock","brand":"FabricLand","category_path":["sewing-fabric"],"condition":"brand_new","currency":"USD","description":"High-quality, unbleached cotton calico fabric bolt, perfect for a variety of crafting and sewing projects.","eligibility_reason":null,"gtin":null,"item_status":"active","location_id":null,"merchant_name":null,"mpn":null,"price":24.99,"quantity":null,"sync_status":"pending","synced_at":null,"title":"Cotton Calico Fabric Bolt - 5 Yards","visibility":"public","manufacturer":null,"source":"MANUAL","enrichment_status":"COMPLETE","enriched_at":null,"enriched_by":null,"enriched_from_barcode":null,"missing_images":false,"missing_description":false,"missing_specs":false,"missing_brand":false,"sale_price_cents":null,"payment_gateway_type":null,"payment_gateway_id":null,"product_type":"physical","digital_delivery_method":null,"digital_assets":null,"access_duration_days":null,"download_limit":null,"license_type":null,"has_variants":false,"is_featured":true,"featured_at":"2026-01-22T14:16:03.533Z","featured_until":"2026-02-21T14:16:02.383Z","featured_priority":50,"featured_type":"store_selection","tenantCategoryId":"tid-m8ijkrnk_sewing-fabric","tenantCategory":{"id":"tid-m8ijkrnk_sewing-fabric","name":"Sewing & Fabric","slug":"sewing-fabric","googleCategoryId":"4579"},"imageUrl":"https://nbwsiobosqawrugnqddo.supabase.co/storage/v1/object/public/photos/tid-m8ijkrnk/products/sid-dqnqesl8/original-1766440461459.jpg","categoryPath":["sewing-fabric"],"featuredTypes":["new_arrival"],"featuredProducts":[{"id":"9e7cd514-96fd-409e-9c14-a95a587acaa6","inventory_item_id":"sid-dqnqesl8","tenant_id":"tid-m8ijkrnk","featured_type":"new_arrival","featured_priority":50,"featured_at":"2026-01-22T14:16:03.533Z","featured_expires_at":"2026-02-21T14:16:02.383Z","auto_unfeature":true,"is_active":true,"days_until_expiration":24,"is_expired":false,"is_expiring_soon":false}],"featuredType":"new_arrival"}],"pagination":{"page":1,"limit":5,"totalItems":31,"totalPages":7,"hasMore":true}}